{
    "swagger": "2.0",
    "info": {
        "contact": {},
        "license": {}
    },
    "paths": {
        "/attach": {
            "post": {
                "consumes": [
                    "multipart/form-data"
                ],
                "produces": [
                    "application/json"
                ],
                "tags": [
                    "Attach"
                ],
                "summary": "Create a attachment",
                "parameters": [
                    {
                        "description": "parent_id and uploadFile are required fields",
                        "name": "post",
                        "in": "body",
                        "required": true,
                        "schema": {
                            "type": "object",
                            "$ref": "#/definitions/models.Attach"
                        }
                    }
                ],
                "responses": {
                    "200": {
                        "description": "OK",
                        "schema": {
                            "$ref": "#/definitions/models.Attach"
                        }
                    }
                }
            }
        },
        "/attach/{id}": {
            "get": {
                "consumes": [
                    "application/json"
                ],
                "produces": [
                    "application/json"
                ],
                "tags": [
                    "Attach"
                ],
                "summary": "Read attach meta-object",
                "parameters": [
                    {
                        "type": "string",
                        "description": "UUID",
                        "name": "id",
                        "in": "path",
                        "required": true
                    }
                ],
                "responses": {
                    "200": {
                        "description": "OK",
                        "schema": {
                            "$ref": "#/definitions/models.Attach"
                        }
                    }
                }
            },
            "delete": {
                "consumes": [
                    "application/json"
                ],
                "produces": [
                    "application/json"
                ],
                "tags": [
                    "Attach"
                ],
                "summary": "Mark attach meta-object to be deleted",
                "parameters": [
                    {
                        "type": "string",
                        "description": "UUID",
                        "name": "id",
                        "in": "path",
                        "required": true
                    }
                ],
                "responses": {
                    "200": {
                        "description": "OK",
                        "schema": {
                            "type": "string"
                        }
                    }
                }
            }
        },
        "/blog": {
            "get": {
                "consumes": [
                    "application/json"
                ],
                "produces": [
                    "application/json"
                ],
                "tags": [
                    "Blog"
                ],
                "summary": "Get all blogs",
                "responses": {
                    "200": {
                        "description": "OK",
                        "schema": {
                            "$ref": "#/definitions/models.Blog"
                        }
                    }
                }
            },
            "post": {
                "consumes": [
                    "application/json"
                ],
                "produces": [
                    "application/json"
                ],
                "tags": [
                    "Blog"
                ],
                "summary": "Create a blog",
                "parameters": [
                    {
                        "description": "group_id and name are required fields",
                        "name": "blog",
                        "in": "body",
                        "required": true,
                        "schema": {
                            "type": "object",
                            "$ref": "#/definitions/models.Blog"
                        }
                    }
                ],
                "responses": {
                    "200": {
                        "description": "OK",
                        "schema": {
                            "$ref": "#/definitions/models.Blog"
                        }
                    }
                }
            }
        },
        "/blog/{blog_id}": {
            "get": {
                "consumes": [
                    "application/json"
                ],
                "produces": [
                    "application/json"
                ],
                "tags": [
                    "Blog"
                ],
                "summary": "Get a blog",
                "parameters": [
                    {
                        "type": "integer",
                        "description": "UUID",
                        "name": "blog_id",
                        "in": "path",
                        "required": true
                    }
                ],
                "responses": {
                    "200": {
                        "description": "OK",
                        "schema": {
                            "$ref": "#/definitions/models.Blog"
                        }
                    }
                }
            },
            "put": {
                "consumes": [
                    "application/json"
                ],
                "produces": [
                    "application/json"
                ],
                "tags": [
                    "Blog"
                ],
                "summary": "Update a blog",
                "parameters": [
                    {
                        "type": "integer",
                        "description": "UUID",
                        "name": "blog_id",
                        "in": "path",
                        "required": true
                    }
                ],
                "responses": {
                    "200": {
                        "description": "OK",
                        "schema": {
                            "type": "array",
                            "items": {
                                "$ref": "#/definitions/models.Blog"
                            }
                        }
                    }
                }
            },
            "delete": {
                "consumes": [
                    "application/json"
                ],
                "produces": [
                    "application/json"
                ],
                "tags": [
                    "Blog"
                ],
                "summary": "Delete a blog",
                "parameters": [
                    {
                        "type": "integer",
                        "description": "UUID",
                        "name": "blog_id",
                        "in": "path",
                        "required": true
                    }
                ],
                "responses": {
                    "200": {
                        "description": "OK",
                        "schema": {
                            "type": "string"
                        }
                    }
                }
            }
        },
        "/blog/{blog_id}/post": {
            "get": {
                "consumes": [
                    "application/json"
                ],
                "produces": [
                    "application/json"
                ],
                "tags": [
                    "Post"
                ],
                "summary": "Get all posts from the blog",
                "parameters": [
                    {
                        "type": "string",
                        "description": "UUID",
                        "name": "blog_id",
                        "in": "path",
                        "required": true
                    }
                ],
                "responses": {
                    "200": {
                        "description": "OK",
                        "schema": {
                            "type": "array",
                            "items": {
                                "$ref": "#/definitions/models.Post"
                            }
                        }
                    }
                }
            }
        },
        "/blog/{blog_id}/role": {
            "get": {
                "consumes": [
                    "application/json"
                ],
                "produces": [
                    "application/json"
                ],
                "tags": [
                    "BlogAdmin"
                ],
                "summary": "Get all user roles for blog",
                "parameters": [
                    {
                        "type": "string",
                        "description": "UUID",
                        "name": "blog_id",
                        "in": "path",
                        "required": true
                    }
                ],
                "responses": {
                    "200": {
                        "description": "OK",
                        "schema": {
                            "type": "array",
                            "items": {
                                "$ref": "#/definitions/models.BlogAdmin"
                            }
                        }
                    }
                }
            }
        },
        "/blog/{blog_id}/tags": {
            "post": {
                "consumes": [
                    "application/json"
                ],
                "produces": [
                    "application/json"
                ],
                "tags": [
                    "Blog"
                ],
                "summary": "Tag a blog",
                "parameters": [
                    {
                        "type": "integer",
                        "description": "UUID",
                        "name": "blog_id",
                        "in": "path",
                        "required": true
                    },
                    {
                        "description": "json array of strings",
                        "name": "tags",
                        "in": "body",
                        "required": true,
                        "schema": {
                            "type": "object",
                            "$ref": "#/definitions/models.Tag"
                        }
                    }
                ],
                "responses": {
                    "200": {
                        "description": "OK",
                        "schema": {
                            "type": "array",
                            "items": {
                                "$ref": "#/definitions/models.Blog"
                            }
                        }
                    }
                }
            }
        },
        "/deleted/attach": {
            "get": {
                "consumes": [
                    "application/json"
                ],
                "produces": [
                    "application/json"
                ],
                "tags": [
                    "Attach"
                ],
                "summary": "Get all attach meta-objects marked to be deleted",
                "responses": {
                    "200": {
                        "description": "OK",
                        "schema": {
                            "type": "array",
                            "items": {
                                "$ref": "#/definitions/models.DeletedAttach"
                            }
                        }
                    }
                }
            }
        },
        "/deleted/attach/{id}": {
            "get": {
                "consumes": [
                    "application/json"
                ],
                "produces": [
                    "application/json"
                ],
                "tags": [
                    "Attach"
                ],
                "summary": "Get attach meta-object marked to be deleted",
                "parameters": [
                    {
                        "type": "string",
                        "description": "UUID",
                        "name": "id",
                        "in": "path",
                        "required": true
                    }
                ],
                "responses": {
                    "200": {
                        "description": "OK",
                        "schema": {
                            "type": "array",
                            "items": {
                                "$ref": "#/definitions/models.DeletedAttach"
                            }
                        }
                    }
                }
            },
            "delete": {
                "consumes": [
                    "application/json"
                ],
                "produces": [
                    "application/json"
                ],
                "tags": [
                    "Attach"
                ],
                "summary": "Delete attach meta-object marked to be deleted and file",
                "parameters": [
                    {
                        "type": "string",
                        "description": "UUID",
                        "name": "id",
                        "in": "path",
                        "required": true
                    }
                ],
                "responses": {
                    "200": {
                        "description": "OK",
                        "schema": {
                            "type": "string"
                        }
                    }
                }
            }
        },
        "/files/{path_to_file}": {
            "get": {
                "consumes": [
                    "application/json"
                ],
                "produces": [
                    "application/json"
                ],
                "tags": [
                    "Attach"
                ],
                "summary": "Read attach file",
                "parameters": [
                    {
                        "type": "string",
                        "description": "path to the file on the server",
                        "name": "path_to_file",
                        "in": "path",
                        "required": true
                    }
                ],
                "responses": {
                    "200": {
                        "description": "OK",
                        "schema": {
                            "type": "string"
                        }
                    }
                }
            }
        },
        "/post": {
            "post": {
                "consumes": [
                    "application/json"
                ],
                "produces": [
                    "application/json"
                ],
                "tags": [
                    "Post"
                ],
                "summary": "Create a post",
                "parameters": [
                    {
                        "description": "blog_id and title are required fields",
                        "name": "post",
                        "in": "body",
                        "required": true,
                        "schema": {
                            "type": "object",
                            "$ref": "#/definitions/models.Post"
                        }
                    }
                ],
                "responses": {
                    "200": {
                        "description": "OK",
                        "schema": {
                            "$ref": "#/definitions/models.Post"
                        }
                    }
                }
            }
        },
        "/post/comment": {
            "post": {
                "consumes": [
                    "application/json"
                ],
                "produces": [
                    "application/json"
                ],
                "tags": [
                    "Post"
                ],
                "summary": "Create a post comment",
                "parameters": [
                    {
                        "description": "post_id and comment are required fields",
                        "name": "post",
                        "in": "body",
                        "required": true,
                        "schema": {
                            "type": "object",
                            "$ref": "#/definitions/models.PostComment"
                        }
                    }
                ],
                "responses": {
                    "200": {
                        "description": "OK",
                        "schema": {
                            "$ref": "#/definitions/models.PostComment"
                        }
                    }
                }
            }
        },
        "/post/comment/{comment_id}": {
            "get": {
                "consumes": [
                    "application/json"
                ],
                "produces": [
                    "application/json"
                ],
                "tags": [
                    "Post"
                ],
                "summary": "Get a post comment",
                "parameters": [
                    {
                        "type": "string",
                        "description": "UUID",
                        "name": "comment_id",
                        "in": "path",
                        "required": true
                    }
                ],
                "responses": {
                    "200": {
                        "description": "OK",
                        "schema": {
                            "$ref": "#/definitions/models.PostComment"
                        }
                    }
                }
            },
            "put": {
                "consumes": [
                    "application/json"
                ],
                "produces": [
                    "application/json"
                ],
                "tags": [
                    "Post"
                ],
                "summary": "Update post comment",
                "parameters": [
                    {
                        "type": "string",
                        "description": "UUID",
                        "name": "comment_id",
                        "in": "path",
                        "required": true
                    }
                ],
                "responses": {
                    "200": {
                        "description": "OK",
                        "schema": {
                            "$ref": "#/definitions/models.PostComment"
                        }
                    }
                }
            },
            "delete": {
                "consumes": [
                    "application/json"
                ],
                "produces": [
                    "application/json"
                ],
                "tags": [
                    "Post"
                ],
                "summary": "Delete post comment",
                "parameters": [
                    {
                        "type": "string",
                        "description": "UUID",
                        "name": "comment_id",
                        "in": "path",
                        "required": true
                    }
                ],
                "responses": {
                    "200": {
                        "description": "OK",
                        "schema": {
                            "type": "string"
                        }
                    }
                }
            }
        },
        "/post/comment/{comment_id}/attach": {
            "get": {
                "consumes": [
                    "application/json"
                ],
                "produces": [
                    "application/json"
                ],
                "tags": [
                    "Post"
                ],
                "summary": "Get all attachments for the post comment",
                "parameters": [
                    {
                        "type": "string",
                        "description": "UUID",
                        "name": "comment_id",
                        "in": "path",
                        "required": true
                    }
                ],
                "responses": {
                    "200": {
                        "description": "OK",
                        "schema": {
                            "type": "array",
                            "items": {
                                "$ref": "#/definitions/models.Attach"
                            }
                        }
                    }
                }
            }
        },
        "/post/comment/{comment_id}/reaction": {
            "get": {
                "consumes": [
                    "application/json"
                ],
                "produces": [
                    "application/json"
                ],
                "tags": [
                    "Reaction"
                ],
                "summary": "Get all reactions for post comment",
                "parameters": [
                    {
                        "type": "string",
                        "description": "UUID",
                        "name": "comment_id",
                        "in": "path",
                        "required": true
                    }
                ],
                "responses": {
                    "200": {
                        "description": "OK",
                        "schema": {
                            "type": "array",
                            "items": {
                                "$ref": "#/definitions/models.Reaction"
                            }
                        }
                    }
                }
            }
        },
        "/post/{post_id}": {
            "get": {
                "consumes": [
                    "application/json"
                ],
                "produces": [
                    "application/json"
                ],
                "tags": [
                    "Post"
                ],
                "summary": "Get a post",
                "parameters": [
                    {
                        "type": "string",
                        "description": "UUID",
                        "name": "post_id",
                        "in": "path",
                        "required": true
                    }
                ],
                "responses": {
                    "200": {
                        "description": "OK",
                        "schema": {
                            "$ref": "#/definitions/models.Post"
                        }
                    }
                }
            },
            "put": {
                "consumes": [
                    "application/json"
                ],
                "produces": [
                    "application/json"
                ],
                "tags": [
                    "Post"
                ],
                "summary": "Update post",
                "parameters": [
                    {
                        "type": "string",
                        "description": "UUID",
                        "name": "post_id",
                        "in": "path",
                        "required": true
                    }
                ],
                "responses": {
                    "200": {
                        "description": "OK",
                        "schema": {
                            "$ref": "#/definitions/models.Attach"
                        }
                    }
                }
            },
            "delete": {
                "consumes": [
                    "application/json"
                ],
                "produces": [
                    "application/json"
                ],
                "tags": [
                    "Post"
                ],
                "summary": "Delete post",
                "parameters": [
                    {
                        "type": "string",
                        "description": "UUID",
                        "name": "post_id",
                        "in": "path",
                        "required": true
                    }
                ],
                "responses": {
                    "200": {
                        "description": "OK",
                        "schema": {
                            "type": "string"
                        }
                    }
                }
            }
        },
        "/post/{post_id}/attach": {
            "get": {
                "consumes": [
                    "application/json"
                ],
                "produces": [
                    "application/json"
                ],
                "tags": [
                    "Post"
                ],
                "summary": "Get all attachments for the post",
                "parameters": [
                    {
                        "type": "string",
                        "description": "UUID",
                        "name": "post_id",
                        "in": "path",
                        "required": true
                    }
                ],
                "responses": {
                    "200": {
                        "description": "OK",
                        "schema": {
                            "type": "array",
                            "items": {
                                "$ref": "#/definitions/models.Attach"
                            }
                        }
                    }
                }
            }
        },
        "/post/{post_id}/comment": {
            "get": {
                "consumes": [
                    "application/json"
                ],
                "produces": [
                    "application/json"
                ],
                "tags": [
                    "Post"
                ],
                "summary": "Get all comments for the post",
                "parameters": [
                    {
                        "type": "string",
                        "description": "UUID",
                        "name": "post_id",
                        "in": "path",
                        "required": true
                    }
                ],
                "responses": {
                    "200": {
                        "description": "OK",
                        "schema": {
                            "type": "array",
                            "items": {
                                "$ref": "#/definitions/models.PostComment"
                            }
                        }
                    }
                }
            }
        },
        "/post/{post_id}/reaction": {
            "get": {
                "consumes": [
                    "application/json"
                ],
                "produces": [
                    "application/json"
                ],
                "tags": [
                    "Reaction"
                ],
                "summary": "Get all reactions for post",
                "parameters": [
                    {
                        "type": "string",
                        "description": "UUID",
                        "name": "post_id",
                        "in": "path",
                        "required": true
                    }
                ],
                "responses": {
                    "200": {
                        "description": "OK",
                        "schema": {
                            "type": "array",
                            "items": {
                                "$ref": "#/definitions/models.Reaction"
                            }
                        }
                    }
                }
            }
        },
        "/post/{post_id}/tags": {
            "post": {
                "consumes": [
                    "application/json"
                ],
                "produces": [
                    "application/json"
                ],
                "tags": [
                    "Post"
                ],
                "summary": "Tag a post",
                "parameters": [
                    {
                        "type": "integer",
                        "description": "UUID",
                        "name": "post_id",
                        "in": "path",
                        "required": true
                    },
                    {
                        "description": "json array of strings",
                        "name": "tags",
                        "in": "body",
                        "required": true,
                        "schema": {
                            "type": "object",
                            "$ref": "#/definitions/models.Tag"
                        }
                    }
                ],
                "responses": {
                    "200": {
                        "description": "OK",
                        "schema": {
                            "type": "array",
                            "items": {
                                "$ref": "#/definitions/models.Tag"
                            }
                        }
                    }
                }
            }
        },
        "/reaction": {
            "post": {
                "consumes": [
                    "application/json"
                ],
                "produces": [
                    "application/json"
                ],
                "tags": [
                    "Reaction"
                ],
                "summary": "Create a reaction",
                "parameters": [
                    {
                        "description": "type_id and parent_id are required fields",
                        "name": "post",
                        "in": "body",
                        "required": true,
                        "schema": {
                            "type": "object",
                            "$ref": "#/definitions/models.Reaction"
                        }
                    }
                ],
                "responses": {
                    "200": {
                        "description": "OK",
                        "schema": {
                            "$ref": "#/definitions/models.Reaction"
                        }
                    }
                }
            }
        },
        "/reaction/{reaction_id}": {
            "delete": {
                "consumes": [
                    "application/json"
                ],
                "produces": [
                    "application/json"
                ],
                "tags": [
                    "Reaction"
                ],
                "summary": "Delete reaction",
                "parameters": [
                    {
                        "type": "string",
                        "description": "UUID",
                        "name": "reaction_id",
                        "in": "path",
                        "required": true
                    }
                ],
                "responses": {
                    "200": {
                        "description": "OK",
                        "schema": {
                            "type": "string"
                        }
                    }
                }
            }
        },
        "/role": {
            "get": {
                "consumes": [
                    "application/json"
                ],
                "produces": [
                    "application/json"
                ],
                "tags": [
                    "BlogAdmin"
                ],
                "summary": "Get all user roles",
                "responses": {
                    "200": {
                        "description": "OK",
                        "schema": {
                            "type": "array",
                            "items": {
                                "$ref": "#/definitions/models.BlogAdmin"
                            }
                        }
                    }
                }
            },
            "post": {
                "consumes": [
                    "application/json"
                ],
                "produces": [
                    "application/json"
                ],
                "tags": [
                    "BlogAdmin"
                ],
                "summary": "Create a user role",
                "parameters": [
                    {
                        "description": "user_id and blog_id are required fields",
                        "name": "post",
                        "in": "body",
                        "required": true,
                        "schema": {
                            "type": "object",
                            "$ref": "#/definitions/models.BlogAdmin"
                        }
                    }
                ],
                "responses": {
                    "200": {
                        "description": "OK",
                        "schema": {
                            "$ref": "#/definitions/models.BlogAdmin"
                        }
                    }
                }
            }
        },
        "/role/{id}": {
            "delete": {
                "consumes": [
                    "application/json"
                ],
                "produces": [
                    "application/json"
                ],
                "tags": [
                    "BlogAdmin"
                ],
                "summary": "Delete user role",
                "parameters": [
                    {
                        "type": "string",
                        "description": "UUID",
                        "name": "id",
                        "in": "path",
                        "required": true
                    }
                ],
                "responses": {
                    "200": {
                        "description": "OK",
                        "schema": {
                            "type": "string"
                        }
                    }
                }
            }
        },
        "/type/attach": {
            "get": {
                "consumes": [
                    "application/json"
                ],
                "produces": [
                    "application/json"
                ],
                "tags": [
                    "Attach"
                ],
                "summary": "Read all attachment type",
                "responses": {
                    "200": {
                        "description": "OK",
                        "schema": {
                            "type": "array",
                            "items": {
                                "$ref": "#/definitions/models.AttachType"
                            }
                        }
                    }
                }
            },
            "post": {
                "consumes": [
                    "application/json"
                ],
                "produces": [
                    "application/json"
                ],
                "tags": [
                    "Attach"
                ],
                "summary": "Create a attachment type",
                "parameters": [
                    {
                        "description": "type is required field",
                        "name": "post",
                        "in": "body",
                        "required": true,
                        "schema": {
                            "type": "object",
                            "$ref": "#/definitions/models.AttachType"
                        }
                    }
                ],
                "responses": {
                    "200": {
                        "description": "OK",
                        "schema": {
                            "$ref": "#/definitions/models.AttachType"
                        }
                    }
                }
            }
        },
        "/type/attach/{id}": {
            "get": {
                "consumes": [
                    "application/json"
                ],
                "produces": [
                    "application/json"
                ],
                "tags": [
                    "Attach"
                ],
                "summary": "Read attachment type",
                "parameters": [
                    {
                        "type": "string",
                        "description": "UUID",
                        "name": "id",
                        "in": "path",
                        "required": true
                    }
                ],
                "responses": {
                    "200": {
                        "description": "OK",
                        "schema": {
                            "$ref": "#/definitions/models.AttachType"
                        }
                    }
                }
            },
            "put": {
                "consumes": [
                    "application/json"
                ],
                "produces": [
                    "application/json"
                ],
                "tags": [
                    "Attach"
                ],
                "summary": "Update attachment type",
                "parameters": [
                    {
                        "type": "string",
                        "description": "UUID",
                        "name": "id",
                        "in": "path",
                        "required": true
                    }
                ],
                "responses": {
                    "200": {
                        "description": "OK",
                        "schema": {
                            "$ref": "#/definitions/models.AttachType"
                        }
                    }
                }
            },
            "delete": {
                "consumes": [
                    "application/json"
                ],
                "produces": [
                    "application/json"
                ],
                "tags": [
                    "Attach"
                ],
                "summary": "Delete attachment type",
                "parameters": [
                    {
                        "type": "string",
                        "description": "UUID",
                        "name": "id",
                        "in": "path",
                        "required": true
                    }
                ],
                "responses": {
                    "200": {
                        "description": "OK",
                        "schema": {
                            "type": "string"
                        }
                    }
                }
            }
        },
        "/type/reaction": {
            "get": {
                "consumes": [
                    "application/json"
                ],
                "produces": [
                    "application/json"
                ],
                "tags": [
                    "Reaction"
                ],
                "summary": "Read all reaction types",
                "responses": {
                    "200": {
                        "description": "OK",
                        "schema": {
                            "type": "array",
                            "items": {
                                "$ref": "#/definitions/models.ReactionType"
                            }
                        }
                    }
                }
            },
            "post": {
                "consumes": [
                    "application/json"
                ],
                "produces": [
                    "application/json"
                ],
                "tags": [
                    "Reaction"
                ],
                "summary": "Create a reaction type",
                "parameters": [
                    {
                        "description": "name is required field",
                        "name": "post",
                        "in": "body",
                        "required": true,
                        "schema": {
                            "type": "object",
                            "$ref": "#/definitions/models.ReactionType"
                        }
                    }
                ],
                "responses": {
                    "200": {
                        "description": "OK",
                        "schema": {
                            "$ref": "#/definitions/models.ReactionType"
                        }
                    }
                }
            }
        },
        "/type/reaction/{type_id}": {
            "get": {
                "consumes": [
                    "application/json"
                ],
                "produces": [
                    "application/json"
                ],
                "tags": [
                    "Reaction"
                ],
                "summary": "Read reaction type",
                "parameters": [
                    {
                        "type": "string",
                        "description": "UUID",
                        "name": "type_id",
                        "in": "path",
                        "required": true
                    }
                ],
                "responses": {
                    "200": {
                        "description": "OK",
                        "schema": {
                            "$ref": "#/definitions/models.ReactionType"
                        }
                    }
                }
            },
            "put": {
                "consumes": [
                    "application/json"
                ],
                "produces": [
                    "application/json"
                ],
                "tags": [
                    "Reaction"
                ],
                "summary": "Update reaction type",
                "parameters": [
                    {
                        "type": "string",
                        "description": "UUID",
                        "name": "type_id",
                        "in": "path",
                        "required": true
                    }
                ],
                "responses": {
                    "200": {
                        "description": "OK",
                        "schema": {
                            "$ref": "#/definitions/models.ReactionType"
                        }
                    }
                }
            },
            "delete": {
                "consumes": [
                    "application/json"
                ],
                "produces": [
                    "application/json"
                ],
                "tags": [
                    "Reaction"
                ],
                "summary": "Delete reaction type",
                "parameters": [
                    {
                        "type": "string",
                        "description": "UUID",
                        "name": "type_id",
                        "in": "path",
                        "required": true
                    }
                ],
                "responses": {
                    "200": {
                        "description": "OK",
                        "schema": {
                            "type": "string"
                        }
                    }
                }
            }
        },
        "/user/{id}/role": {
            "get": {
                "consumes": [
                    "application/json"
                ],
                "produces": [
                    "application/json"
                ],
                "tags": [
                    "BlogAdmin"
                ],
                "summary": "Get all user roles for user",
                "parameters": [
                    {
                        "type": "string",
                        "description": "UUID",
                        "name": "blog_id",
                        "in": "path",
                        "required": true
                    }
                ],
                "responses": {
                    "200": {
                        "description": "OK",
                        "schema": {
                            "type": "array",
                            "items": {
                                "$ref": "#/definitions/models.BlogAdmin"
                            }
                        }
                    }
                }
            }
        },
        "/user/{user_id}/post": {
            "get": {
                "consumes": [
                    "application/json"
                ],
                "produces": [
                    "application/json"
                ],
                "tags": [
                    "Post"
                ],
                "summary": "Get all posts created by user",
                "parameters": [
                    {
                        "type": "string",
                        "description": "UUID",
                        "name": "user_id",
                        "in": "path",
                        "required": true
                    }
                ],
                "responses": {
                    "200": {
                        "description": "OK",
                        "schema": {
                            "type": "array",
                            "items": {
                                "$ref": "#/definitions/models.Attach"
                            }
                        }
                    }
                }
            }
        }
    },
    "definitions": {
        "models.Attach": {
            "type": "object",
            "properties": {
                "created_by": {
                    "type": "string"
                },
                "created_when": {
                    "type": "string"
                },
                "id": {
                    "type": "string"
                },
                "name": {
                    "type": "string"
                },
                "orig_name": {
                    "type": "string"
                },
                "parent_id": {
                    "type": "string"
                },
                "updated": {
                    "type": "boolean"
                },
                "updated_by": {
                    "type": "string"
                },
                "updated_when": {
                    "type": "string"
                },
                "url": {
                    "type": "string"
                }
            }
        },
        "models.AttachType": {
            "type": "object",
            "properties": {
                "created_by": {
                    "type": "string"
                },
                "created_when": {
                    "type": "string"
                },
                "id": {
                    "type": "string"
                },
                "type": {
                    "type": "string"
                },
                "updated": {
                    "type": "boolean"
                },
                "updated_by": {
                    "type": "string"
                },
                "updated_when": {
                    "type": "string"
                }
            }
        },
        "models.Blog": {
            "type": "object",
            "properties": {
                "created_by": {
                    "type": "string"
                },
                "created_when": {
                    "type": "string"
                },
                "group_id": {
                    "type": "string"
                },
                "hidden": {
                    "type": "boolean"
                },
                "id": {
                    "type": "string"
                },
                "name": {
                    "type": "string"
                },
                "tags": {
                    "type": "array",
                    "items": {
                        "$ref": "#/definitions/models.Tag"
                    }
                },
                "updated": {
                    "type": "boolean"
                },
                "updated_by": {
                    "type": "string"
                },
                "updated_when": {
                    "type": "string"
                }
            }
        },
        "models.BlogAdmin": {
            "type": "object",
            "properties": {
                "blog_id": {
                    "type": "string"
                },
                "created_by": {
                    "type": "string"
                },
                "created_when": {
                    "type": "string"
                },
                "id": {
                    "type": "string"
                },
                "user_id": {
                    "type": "string"
                }
            }
        },
        "models.DeletedAttach": {
            "type": "object",
            "properties": {
                "created_by": {
                    "type": "string"
                },
                "created_when": {
                    "type": "string"
                },
                "deleted": {
                    "type": "boolean"
                },
                "deleted_by": {
                    "type": "string"
                },
                "deleted_when": {
                    "type": "string"
                },
                "id": {
                    "type": "string"
                },
                "name": {
                    "type": "string"
                },
                "orig_name": {
                    "type": "string"
                },
                "parent_id": {
                    "type": "string"
                },
                "updated": {
                    "type": "boolean"
                },
                "updated_by": {
                    "type": "string"
                },
                "updated_when": {
                    "type": "string"
                },
                "url": {
                    "type": "string"
                }
            }
        },
        "models.Post": {
            "type": "object",
            "properties": {
                "blog_id": {
                    "type": "string"
                },
                "content": {
                    "type": "string"
                },
                "created_by": {
                    "type": "string"
                },
                "created_when": {
                    "type": "string"
                },
                "id": {
                    "type": "string"
                },
                "reactions": {
                    "type": "array",
                    "items": {
                        "$ref": "#/definitions/models.Reaction"
                    }
                },
                "remove_by": {
                    "type": "string"
                },
                "remove_when": {
                    "type": "string"
                },
                "tags": {
                    "type": "array",
                    "items": {
                        "$ref": "#/definitions/models.Tag"
                    }
                },
                "title": {
                    "type": "string"
                },
                "to_remove": {
                    "type": "boolean"
                },
                "updated": {
                    "type": "boolean"
                },
                "updated_by": {
                    "type": "string"
                },
                "updated_when": {
                    "type": "string"
                }
            }
        },
        "models.PostComment": {
            "type": "object",
            "properties": {
                "comment": {
                    "type": "string"
                },
                "created_by": {
                    "type": "string"
                },
                "created_when": {
                    "type": "string"
                },
                "id": {
                    "type": "string"
                },
                "parent_id": {
                    "type": "string"
                },
                "post_id": {
                    "type": "string"
                },
                "remove_by": {
                    "type": "string"
                },
                "remove_when": {
                    "type": "string"
                },
                "to_remove": {
                    "type": "boolean"
                },
                "updated": {
                    "type": "boolean"
                },
                "updated_by": {
                    "type": "string"
                },
                "updated_when": {
                    "type": "string"
                }
            }
        },
        "models.Reaction": {
            "type": "object",
            "properties": {
                "created_by": {
                    "type": "string"
                },
                "created_when": {
                    "type": "string"
                },
                "id": {
                    "type": "string"
                },
                "parent_id": {
                    "type": "string"
                },
                "type_id": {
                    "type": "string"
                }
            }
        },
        "models.ReactionType": {
            "type": "object",
            "properties": {
                "created_by": {
                    "type": "string"
                },
                "created_when": {
                    "type": "string"
                },
                "id": {
                    "type": "string"
                },
                "name": {
                    "type": "string"
                },
                "updated": {
                    "type": "boolean"
                },
                "updated_by": {
                    "type": "string"
                },
                "updated_when": {
                    "type": "string"
                }
            }
        },
        "models.Tag": {
            "type": "object",
            "properties": {
                "id": {
                    "type": "string"
                },
                "value": {
                    "type": "string"
                }
            }
        }
    }
}